…
- tbl_df creates a local data frame, wraps text so prints nicely

```r
flights <- tbl_df(hflights)
flights
```

```
## # A tibble: 227,496 x 21
##     Year Month DayofMonth DayOfWeek DepTime ArrTime UniqueCarrier
##  * <int> <int>      <int>     <int>   <int>   <int> <chr>        
##  1  2011     1          1         6    1400    1500 AA           
##  2  2011     1          2         7    1401    1501 AA           
##  3  2011     1          3         1    1352    1502 AA           
##  4  2011     1          4         2    1403    1513 AA           
##  5  2011     1          5         3    1405    1507 AA           
##  6  2011     1          6         4    1359    1503 AA           
##  7  2011     1          7         5    1359    1509 AA           
##  8  2011     1          8         6    1355    1454 AA           
##  9  2011     1          9         7    1443    1554 AA           
## 10  2011     1         10         1    1443    1553 AA           
## # ... with 227,486 more rows, and 14 more variables: FlightNum <int>,
## #   TailNum <chr>, ActualElapsedTime <int>, AirTime <int>, ArrDelay <int>,
## #   DepDelay <int>, Origin <chr>, Dest <chr>, Distance <int>,
## #   TaxiIn <int>, TaxiOut <int>, Cancelled <int>, CancellationCode <chr>,
## #   Diverted <int>
```

# 2.0 filter()

- allows you to filter by rows matching certain criteria

### Command Structure
- first argument is a data frame, following arguments are what to filter by
- return value is a data frame

```r
filter(flights, Month==1, DayofMonth==1)
```

```
## # A tibble: 552 x 21
##     Year Month DayofMonth DayOfWeek DepTime ArrTime UniqueCarrier
##    <int> <int>      <int>     <int>   <int>   <int> <chr>        
##  1  2011     1          1         6    1400    1500 AA           
##  2  2011     1          1         6     728     840 AA           
##  3  2011     1          1         6    1631    1736 AA           
##  4  2011     1          1         6    1756    2112 AA           
##  5  2011     1          1         6    1012    1347 AA           
##  6  2011     1          1         6    1211    1325 AA           
##  7  2011     1          1         6     557     906 AA           
##  8  2011     1          1         6    1824    2106 AS           
##  9  2011     1          1         6     654    1124 B6           
## 10  2011     1          1         6    1639    2110 B6           
## # ... with 542 more rows, and 14 more variables: FlightNum <int>,
## #   TailNum <chr>, ActualElapsedTime <int>, AirTime <int>, ArrDelay <int>,
## #   DepDelay <int>, Origin <chr>, Dest <chr>, Distance <int>,
## #   TaxiIn <int>, TaxiOut <int>, Cancelled <int>, CancellationCode <chr>,
## #   Diverted <int>
```

# 3.0 select()

- allows you to pick columns by name

### Command Structure
- first argument is a data frame, following arguments are column names

```r
select(flights, DepTime, ArrTime, FlightNum)
```

```
## # A tibble: 227,496 x 3
##    DepTime ArrTime FlightNum
##  *   <int>   <int>     <int>
##  1    1400    1500       428
##  2    1401    1501       428
##  3    1352    1502       428
##  4    1403    1513       428
##  5    1405    1507       428
##  6    1359    1503       428
##  7    1359    1509       428
##  8    1355    1454       428
##  9    1443    1554       428
## 10    1443    1553       428
## # ... with 227,486 more rows
```

## 3.1 Chaining or Pipelining

- allows you to perform multiple operations in one line by nesting commands
- use the %>% operator (pronounced "and then")

```r
flights %>%
  select(UniqueCarrier, DepDelay) %>%
  filter(DepDelay > 60)
```

```
## # A tibble: 10,242 x 2
##    UniqueCarrier DepDelay
##    <chr>            <int>
##  1 AA                  90
##  2 AA                  67
##  3 AA                  74
##  4 AA                 125
##  5 AA                  82
##  6 AA                  99
##  7 AA                  70
##  8 AA                  61
##  9 AA                  74
## 10 AS                  73
## # ... with 10,232 more rows
```
…
- allows you to reorder rows by sorting in ascending order (default)

### Command Structure

- call dataframe, then select columns, then arrange by the column of choice
- for descending order use arrange(desc(column_name))

```r
flights %>%
  select(UniqueCarrier, DepDelay) %>%
  arrange(DepDelay)
```

```
## # A tibble: 227,496 x 2
##    UniqueCarrier DepDelay
##    <chr>            <int>
##  1 OO                 -33
##  2 MQ                 -23
##  3 XE                 -19
##  4 XE                 -19
##  5 CO                 -18
##  6 EV                 -18
##  7 XE                 -17
##  8 CO                 -17
##  9 XE                 -17
## 10 MQ                 -17
## # ... with 227,486 more rows
```
…
# 5.0 mutate()

- allows you to add new variables that are functions of existing variables

```r
flights %>%
  select(Distance, AirTime) %>%
  mutate(Speed = Distance/AirTime*60)
```

```
## # A tibble: 227,496 x 3
##    Distance AirTime Speed
##       <int>   <int> <dbl>
##  1      224      40  336 
##  2      224      45  299.
##  3      224      48  280 
##  4      224      39  345.
##  5      224      44  305.
##  6      224      45  299.
##  7      224      43  313.
##  8      224      40  336 
##  9      224      41  328.
## 10      224      45  299.
## # ... with 227,486 more rows
```
…
# 6.0 summarise()

- reduces variables to values, useful for data that has been grouped by one or more variables
- group_by() creates the groups that will be operated on, summarise() uses the provided aggregation function to summarise each group

```r
flights %>%
  group_by(Dest) %>%
  summarise(avg_delay = mean(ArrDelay, na.rm=TRUE))
```

```
## # A tibble: 116 x 2
##    Dest  avg_delay
##    <chr>     <dbl>
##  1 ABQ        7.23
##  2 AEX        5.84
##  3 AGS        4   
##  4 AMA        6.84
##  5 ANC       26.1 
##  6 ASE        6.79
##  7 ATL        8.23
##  8 AUS        7.45
##  9 AVL        9.97
## 10 BFL      -13.2 
## # ... with 106 more rows
```
…
